{
    "name": "Badge",
    "fields": [
        {
            "fieldName": "startDate",
            "fieldType": "LocalDate"
        },
        {
            "fieldName": "endDate",
            "fieldType": "LocalDate"
        },
        {
            "fieldName": "typeBadge",
            "fieldType": "TypeBadge",
            "fieldValues": "VISITEUR,VISITEUR_ESCORTE,PELERIN,EMPLOYE,TEMPORAIRE"
        }
    ],
    "relationships": [
        {
            "relationshipType": "many-to-many",
            "otherEntityRelationshipName": "",
            "relationshipName": "accces",
            "otherEntityName": "acces",
            "otherEntityField": "id",
            "ownerSide": true
        }
    ],
    "changelogDate": "20190306191941",
    "entityTableName": "badge",
    "dto": "no",
    "pagination": "no",
    "service": "no",
    "jpaMetamodelFiltering": false,
    "fluentMethods": true,
    "clientRootFolder": "",
    "applications": "*"
}